{
  "categories": [
    {
      "name": "courses",
      "icon": "courses"
    },
    {
      "name": "services",
      "icon": "service"
    },
    {
      "name": "campus",
      "icon": "campus"
    }
  ]
}